<svg width="30" height="30" viewBox="0 0 30 30" fill="none" xmlns="http://www.w3.org/2000/svg">
<path d="M15 27.5C8.09644 27.5 2.5 21.9036 2.5 15C2.5 8.09644 8.09644 2.5 15 2.5C21.9036 2.5 27.5 8.09644 27.5 15C27.4924 21.9004 21.9004 27.4924 15 27.5ZM14.98 25H15C20.5209 24.9945 24.9928 20.5159 24.99 14.995C24.9872 9.47411 20.5109 5.00001 14.99 5.00001C9.4691 5.00001 4.99276 9.47411 4.99 14.995C4.98724 20.5159 9.45911 24.9945 14.98 25ZM12.5 21.25L7.5 16.25L9.2625 14.4875L12.5 17.7125L20.7375 9.475L22.5 11.25L12.5 21.25Z" fill="#112456"/>
</svg>
